{
    "key": "group_556b5d383966f",
    "title": "Call To Action Details - Global",
    "fields": [
        {
            "layout": "horizontal",
            "choices": {
                "solid": "Solid Background",
                "img-bg": "Image Background",
                "video-bg": "Video Background"
            },
            "default_value": "solid",
            "other_choice": 0,
            "save_other_choice": 0,
            "allow_null": 0,
            "return_format": "value",
            "key": "field_580e6ce521acf",
            "label": "CTA Type",
            "name": "cta_type",
            "type": "radio",
            "instructions": "Which Type of CTA is this?",
            "required": 1,
            "conditional_logic": 0,
            "wrapper": {
                "width": "",
                "class": "",
                "id": ""
            }
        },
        {
            "placement": "left",
            "endpoint": 0,
            "key": "field_580e6e4047686",
            "label": "Page\/Post Settings",
            "name": "",
            "type": "tab",
            "instructions": "Add the pages to show the call to action on",
            "required": 0,
            "conditional_logic": 0,
            "wrapper": {
                "width": "",
                "class": "",
                "id": ""
            }
        },
        {
            "post_type": [
                "post",
                "page",
                "location"
            ],
            "taxonomy": [],
            "min": "",
            "max": "",
            "filters": [
                "search",
                "post_type",
                "taxonomy"
            ],
            "elements": "",
            "return_format": "object",
            "key": "field_556b5e7376398",
            "label": "Show On Page Or Post",
            "name": "cta_show_on_page",
            "type": "relationship",
            "instructions": "Add the pages where you would like to display the call to action.",
            "required": 1,
            "conditional_logic": 0,
            "wrapper": {
                "width": "",
                "class": "",
                "id": ""
            }
        },
        {
            "placement": "left",
            "endpoint": 0,
            "key": "field_580e6eca313b3",
            "label": "Content",
            "name": "",
            "type": "tab",
            "instructions": "Add the pages to show the call to action on",
            "required": 0,
            "conditional_logic": 0,
            "wrapper": {
                "width": "",
                "class": "",
                "id": ""
            }
        },
        {
            "tabs": "all",
            "toolbar": "full",
            "media_upload": 0,
            "default_value": "",
            "delay": 0,
            "key": "field_580e6f6378bff",
            "label": "CTA Content",
            "name": "cta_content",
            "type": "wysiwyg",
            "instructions": "",
            "required": 1,
            "conditional_logic": 0,
            "wrapper": {
                "width": "",
                "class": "",
                "id": ""
            }
        },
        {
            "placement": "top",
            "endpoint": 0,
            "key": "field_580e6f7c725cb",
            "label": "Images",
            "name": "",
            "type": "tab",
            "instructions": "",
            "required": 0,
            "conditional_logic": [
                [
                    {
                        "field": "field_580e6ce521acf",
                        "operator": "==",
                        "value": "img-bg"
                    }
                ],
                [
                    {
                        "field": "field_580e6ce521acf",
                        "operator": "==",
                        "value": "img-left"
                    }
                ]
            ],
            "wrapper": {
                "width": "",
                "class": "",
                "id": ""
            }
        },
        {
            "return_format": "array",
            "preview_size": "thumbnail",
            "library": "all",
            "min_width": "",
            "min_height": "",
            "min_size": "",
            "max_width": "",
            "max_height": "",
            "max_size": "",
            "mime_types": "",
            "key": "field_580e6fb359802",
            "label": "Background Image",
            "name": "cta_background_image",
            "type": "image",
            "instructions": "",
            "required": 1,
            "conditional_logic": [
                [
                    {
                        "field": "field_580e6ce521acf",
                        "operator": "==",
                        "value": "img-bg"
                    }
                ],
                [
                    {
                        "field": "field_580e6ce521acf",
                        "operator": "==",
                        "value": "img-left"
                    }
                ]
            ],
            "wrapper": {
                "width": "",
                "class": "",
                "id": ""
            }
        },
        {
            "return_format": "array",
            "preview_size": "thumbnail",
            "library": "all",
            "min_width": "",
            "min_height": "",
            "min_size": "",
            "max_width": "",
            "max_height": "",
            "max_size": "",
            "mime_types": "",
            "key": "field_580e6fe759803",
            "label": "Left Image",
            "name": "cta_left_image",
            "type": "image",
            "instructions": "",
            "required": 1,
            "conditional_logic": [
                [
                    {
                        "field": "field_580e6ce521acf",
                        "operator": "==",
                        "value": "img-left"
                    }
                ]
            ],
            "wrapper": {
                "width": "",
                "class": "",
                "id": ""
            }
        },
        {
            "placement": "top",
            "endpoint": 0,
            "key": "field_582c5f5875fb5",
            "label": "Video",
            "name": "",
            "type": "tab",
            "instructions": "",
            "required": 0,
            "conditional_logic": [
                [
                    {
                        "field": "field_580e6ce521acf",
                        "operator": "==",
                        "value": "video-bg"
                    }
                ]
            ],
            "wrapper": {
                "width": "",
                "class": "",
                "id": ""
            }
        },
        {
            "return_format": "array",
            "preview_size": "thumbnail",
            "library": "all",
            "min_width": "",
            "min_height": "",
            "min_size": "",
            "max_width": "",
            "max_height": "",
            "max_size": "",
            "mime_types": "",
            "key": "field_582c60fad000c",
            "label": "Poster Image",
            "name": "cta_video_poster_image",
            "type": "image",
            "instructions": "",
            "required": 0,
            "conditional_logic": 0,
            "wrapper": {
                "width": "",
                "class": "",
                "id": ""
            }
        },
        {
            "return_format": "array",
            "library": "all",
            "min_size": "",
            "max_size": "",
            "mime_types": "",
            "key": "field_582c5f6a75fb6",
            "label": "Background Video",
            "name": "cta_bg_video",
            "type": "file",
            "instructions": "",
            "required": 0,
            "conditional_logic": 0,
            "wrapper": {
                "width": "",
                "class": "",
                "id": ""
            }
        }
    ],
    "location": [
        [
            {
                "param": "post_type",
                "operator": "==",
                "value": "call_to_action"
            }
        ]
    ],
    "menu_order": 0,
    "position": "normal",
    "style": "default",
    "label_placement": "top",
    "instruction_placement": "label",
    "hide_on_screen": [
        "featured_image"
    ],
    "active": 1,
    "description": "",
    "modified": 1481744804
}