{
    "key": "group_593ee16a9cf8d",
    "title": "Flex - Icon Blurb Section",
    "fields": [
        {
            "key": "field_593ee16aa2174",
            "label": "Background Color",
            "name": "background_color",
            "type": "radio",
            "instructions": "",
            "required": 1,
            "conditional_logic": 0,
            "wrapper": {
                "width": "",
                "class": "",
                "id": ""
            },
            "layout": "horizontal",
            "choices": {
                "light-gray": "Light Gray",
                "white": "White"
            },
            "default_value": "white",
            "other_choice": 0,
            "save_other_choice": 0,
            "allow_null": 0,
            "return_format": "value"
        },
        {
            "key": "field_593ee16aa217d",
            "label": "Section Title",
            "name": "section_title",
            "type": "text",
            "instructions": "",
            "required": 0,
            "conditional_logic": 0,
            "wrapper": {
                "width": "",
                "class": "",
                "id": ""
            },
            "default_value": "",
            "maxlength": "",
            "placeholder": "",
            "prepend": "",
            "append": ""
        },
        {
            "key": "field_593ee16aa2186",
            "label": "Sub Title",
            "name": "sub_title",
            "type": "text",
            "instructions": "",
            "required": 0,
            "conditional_logic": 0,
            "wrapper": {
                "width": "",
                "class": "",
                "id": ""
            },
            "default_value": "",
            "maxlength": "",
            "placeholder": "",
            "prepend": "",
            "append": ""
        },
        {
            "key": "field_593ee16aa218f",
            "label": "Section Button Text",
            "name": "section_button_text",
            "type": "text",
            "instructions": "",
            "required": 0,
            "conditional_logic": 0,
            "wrapper": {
                "width": "",
                "class": "",
                "id": ""
            },
            "default_value": "",
            "maxlength": "",
            "placeholder": "",
            "prepend": "",
            "append": ""
        },
        {
            "key": "field_59c956f9d1631",
            "label": "Section Button",
            "name": "section_button",
            "type": "link",
            "instructions": "",
            "required": 0,
            "conditional_logic": 0,
            "wrapper": {
                "width": "",
                "class": "",
                "id": ""
            },
            "return_format": "array"
        },
        {
            "key": "field_593ee16aa21ab",
            "label": "Icon Blurbs",
            "name": "icon_blurbs",
            "type": "repeater",
            "instructions": "",
            "required": 1,
            "conditional_logic": 0,
            "wrapper": {
                "width": "",
                "class": "",
                "id": ""
            },
            "min": 3,
            "max": 0,
            "layout": "block",
            "button_label": "Add Icon Blurb",
            "collapsed": "",
            "sub_fields": [
                {
                    "key": "field_593ee16aaba28",
                    "label": "Icon",
                    "name": "icon",
                    "type": "image",
                    "instructions": "Displays above the blurb.",
                    "required": 1,
                    "conditional_logic": 0,
                    "wrapper": {
                        "width": "",
                        "class": "",
                        "id": ""
                    },
                    "return_format": "array",
                    "preview_size": "thumbnail",
                    "library": "all",
                    "min_width": "",
                    "min_height": "",
                    "min_size": "",
                    "max_width": "",
                    "max_height": "",
                    "max_size": "",
                    "mime_types": "svg"
                },
                {
                    "key": "field_593ee16aaba1c",
                    "label": "Icon Blurb URL",
                    "name": "icon_blurb_url",
                    "type": "url",
                    "instructions": "The url you want people to be redirected to when they click the icon\/blurb. (Optional)",
                    "required": 0,
                    "conditional_logic": 0,
                    "wrapper": {
                        "width": "",
                        "class": "",
                        "id": ""
                    },
                    "default_value": "",
                    "placeholder": ""
                },
                {
                    "key": "field_593ee16aaba32",
                    "label": "Blurb Title",
                    "name": "blurb_title",
                    "type": "text",
                    "instructions": "",
                    "required": 0,
                    "conditional_logic": 0,
                    "wrapper": {
                        "width": "",
                        "class": "",
                        "id": ""
                    },
                    "default_value": "",
                    "maxlength": "",
                    "placeholder": "",
                    "prepend": "",
                    "append": ""
                },
                {
                    "key": "field_593ee16aaba3b",
                    "label": "Blurb",
                    "name": "blurb",
                    "type": "text",
                    "instructions": "",
                    "required": 1,
                    "conditional_logic": 0,
                    "wrapper": {
                        "width": "",
                        "class": "",
                        "id": ""
                    },
                    "default_value": "",
                    "maxlength": "",
                    "placeholder": "",
                    "prepend": "",
                    "append": ""
                }
            ]
        }
    ],
    "location": [
        [
            {
                "param": "page_template",
                "operator": "==",
                "value": "template-content-builder.php"
            }
        ]
    ],
    "menu_order": 5,
    "position": "normal",
    "style": "default",
    "label_placement": "top",
    "instruction_placement": "label",
    "hide_on_screen": [
        "the_content"
    ],
    "active": 0,
    "description": "",
    "modified": 1513796614
}