{
    "key": "group_5733f008236f7",
    "title": "Theme Settings",
    "fields": [
        {
            "key": "field_5a2efaeaa766d",
            "label": "General",
            "name": "",
            "type": "tab",
            "instructions": "",
            "required": 0,
            "conditional_logic": 0,
            "wrapper": {
                "width": "",
                "class": "",
                "id": ""
            },
            "placement": "top",
            "endpoint": 0
        },
        {
            "key": "field_5a2efaf4a766e",
            "label": "Phone Number",
            "name": "phone_number",
            "type": "text",
            "instructions": "",
            "required": 0,
            "conditional_logic": 0,
            "wrapper": {
                "width": "",
                "class": "",
                "id": ""
            },
            "default_value": "",
            "placeholder": "",
            "prepend": "",
            "append": "",
            "maxlength": ""
        },
        {
            "key": "field_5733f136a825d",
            "label": "Social",
            "name": "",
            "type": "tab",
            "instructions": "",
            "required": 0,
            "conditional_logic": 0,
            "wrapper": {
                "width": "",
                "class": "",
                "id": ""
            },
            "placement": "left",
            "endpoint": 0
        },
        {
            "key": "field_5733f3b421ace",
            "label": "Social Selection",
            "name": "social_selection",
            "type": "select",
            "instructions": "Select the social media options you would like to enable.",
            "required": 0,
            "conditional_logic": 0,
            "wrapper": {
                "width": "",
                "class": "",
                "id": ""
            },
            "choices": {
                "facebook": "Facebook",
                "twitter": "Twitter",
                "instagram": "Instagram",
                "pinterest": "Pinterest",
                "youtube": "YouTube",
                "linkedin": "LinkedIn",
                "google": "Google+",
                "flickr": "Flickr"
            },
            "default_value": [],
            "allow_null": 0,
            "multiple": 1,
            "ui": 0,
            "ajax": 0,
            "return_format": "value",
            "placeholder": ""
        },
        {
            "key": "field_5733f430ac6cf",
            "label": "Facebook Link",
            "name": "facebook_link",
            "type": "url",
            "instructions": "Enter the URL to the Facebook profile.",
            "required": 1,
            "conditional_logic": [
                [
                    {
                        "field": "field_5733f3b421ace",
                        "operator": "==",
                        "value": "facebook"
                    }
                ]
            ],
            "wrapper": {
                "width": "",
                "class": "",
                "id": ""
            },
            "default_value": "",
            "placeholder": ""
        },
        {
            "key": "field_5733f457ac6d0",
            "label": "Twitter Link",
            "name": "twitter_link",
            "type": "url",
            "instructions": "",
            "required": 1,
            "conditional_logic": [
                [
                    {
                        "field": "field_5733f3b421ace",
                        "operator": "==",
                        "value": "twitter"
                    }
                ]
            ],
            "wrapper": {
                "width": "",
                "class": "",
                "id": ""
            },
            "default_value": "",
            "placeholder": ""
        },
        {
            "key": "field_5733f48c40351",
            "label": "Instagram Link",
            "name": "instagram_link",
            "type": "url",
            "instructions": "",
            "required": 1,
            "conditional_logic": [
                [
                    {
                        "field": "field_5733f3b421ace",
                        "operator": "==",
                        "value": "instagram"
                    }
                ]
            ],
            "wrapper": {
                "width": "",
                "class": "",
                "id": ""
            },
            "default_value": "",
            "placeholder": ""
        },
        {
            "key": "field_5733f49940352",
            "label": "Pinterest Link",
            "name": "pinterest_link",
            "type": "url",
            "instructions": "",
            "required": 1,
            "conditional_logic": [
                [
                    {
                        "field": "field_5733f3b421ace",
                        "operator": "==",
                        "value": "pinterest"
                    }
                ]
            ],
            "wrapper": {
                "width": "",
                "class": "",
                "id": ""
            },
            "default_value": "",
            "placeholder": ""
        },
        {
            "key": "field_5733f4a640353",
            "label": "YouTube Link",
            "name": "youtube_link",
            "type": "url",
            "instructions": "",
            "required": 1,
            "conditional_logic": [
                [
                    {
                        "field": "field_5733f3b421ace",
                        "operator": "==",
                        "value": "youtube"
                    }
                ]
            ],
            "wrapper": {
                "width": "",
                "class": "",
                "id": ""
            },
            "default_value": "",
            "placeholder": ""
        },
        {
            "key": "field_5733f4b640354",
            "label": "LinkedIn Link",
            "name": "linkedin_link",
            "type": "url",
            "instructions": "",
            "required": 1,
            "conditional_logic": [
                [
                    {
                        "field": "field_5733f3b421ace",
                        "operator": "==",
                        "value": "linkedin"
                    }
                ]
            ],
            "wrapper": {
                "width": "",
                "class": "",
                "id": ""
            },
            "default_value": "",
            "placeholder": ""
        },
        {
            "key": "field_5733f4c540355",
            "label": "Google+ Link",
            "name": "google_link",
            "type": "url",
            "instructions": "",
            "required": 1,
            "conditional_logic": [
                [
                    {
                        "field": "field_5733f3b421ace",
                        "operator": "==",
                        "value": "google"
                    }
                ]
            ],
            "wrapper": {
                "width": "",
                "class": "",
                "id": ""
            },
            "default_value": "",
            "placeholder": ""
        },
        {
            "key": "field_59c9543c0c2dc",
            "label": "Flickr Link",
            "name": "flickr_link",
            "type": "url",
            "instructions": "",
            "required": 1,
            "conditional_logic": [
                [
                    {
                        "field": "field_5733f3b421ace",
                        "operator": "==",
                        "value": "flickr"
                    }
                ]
            ],
            "wrapper": {
                "width": "",
                "class": "",
                "id": ""
            },
            "default_value": "",
            "placeholder": ""
        },
        {
            "key": "field_58482d2f5cbf7",
            "label": "Banner Settings",
            "name": "",
            "type": "tab",
            "instructions": "",
            "required": 0,
            "conditional_logic": 0,
            "wrapper": {
                "width": "",
                "class": "",
                "id": ""
            },
            "placement": "left",
            "endpoint": 0
        },
        {
            "key": "field_58482d425cbf8",
            "label": "Default Banner Image",
            "name": "default_banner_image",
            "type": "image",
            "instructions": "Set a default banner image. This is used (by default) on pages and various other places throughout the theme.",
            "required": 0,
            "conditional_logic": 0,
            "wrapper": {
                "width": "",
                "class": "",
                "id": ""
            },
            "return_format": "array",
            "preview_size": "thumbnail",
            "library": "all",
            "min_width": "",
            "min_height": "",
            "min_size": "",
            "max_width": "",
            "max_height": "",
            "max_size": "",
            "mime_types": ""
        },
        {
            "key": "field_58b82da2b5b05",
            "label": "Default Banner Height",
            "name": "default_banner_height",
            "type": "radio",
            "instructions": "Select the banner height for blog singles and the archives.",
            "required": 0,
            "conditional_logic": 0,
            "wrapper": {
                "width": "",
                "class": "",
                "id": ""
            },
            "choices": {
                "small": "Small",
                "medium": "Medium",
                "large": "Large",
                "full-screen": "Full Screen"
            },
            "allow_null": 0,
            "other_choice": 0,
            "save_other_choice": 0,
            "default_value": "medium",
            "layout": "horizontal",
            "return_format": "value"
        }
    ],
    "location": [
        [
            {
                "param": "options_page",
                "operator": "==",
                "value": "theme-general-settings"
            }
        ]
    ],
    "menu_order": 0,
    "position": "normal",
    "style": "default",
    "label_placement": "top",
    "instruction_placement": "label",
    "hide_on_screen": "",
    "active": 1,
    "description": "",
    "modified": 1513028422
}